[+] Containers:
 |- [+] Container: /Game/TestMap
 |   |- [+] ActorDescs:
 |   |   |- Guid:03920DF94EEFC9F86CC66185D32A3DA1 BaseClass: NativeClass:/Script/Engine.StaticMeshActor Name:StaticMeshActor_UAID_A4AE111137DC54FB00_1240666663 Label:SM_SkySphere SpatiallyLoaded:0 Bounds:IsValid=true, Min=(X=-1638400.000 Y=-1638400.000 Z=-1638598.000), Max=(X=1638400.000 Y=1638400.000 Z=1638202.000) RuntimeGrid:None EditorOnly:0 RuntimeOnly:0 HLODRelevant:0 FolderPath:Lighting FolderGuid:B7E9BD5B45A652654791988DEF54CCEB
 |   |   |- Guid:1D3D26F04B6DC10BEFB5B69E5CF914C8 BaseClass: NativeClass:/Script/Engine.VolumetricCloud Name:VolumetricCloud_UAID_A85E45CFE40401D200_1470381760 Label:VolumetricCloud SpatiallyLoaded:0 Bounds:IsValid=true, Min=(X=0.000 Y=0.000 Z=-264.000), Max=(X=0.000 Y=0.000 Z=-264.000) RuntimeGrid:None EditorOnly:0 RuntimeOnly:0 HLODRelevant:0 FolderPath:Lighting FolderGuid:B7E9BD5B45A652654791988DEF54CCEB
 |   |   |- Guid:1D6BD236467F5F6F0114E9B1916F78A4 BaseClass: NativeClass:/Script/Engine.StaticMeshActor Name:StaticMeshActor_UAID_047C16473BB52C9901_1702703472 Label:Wall SpatiallyLoaded:1 Bounds:IsValid=true, Min=(X=50.020 Y=-50.000 Z=-1.578), Max=(X=53.145 Y=50.000 Z=14.047) RuntimeGrid:None EditorOnly:0 RuntimeOnly:0 HLODRelevant:1
 |   |   |- Guid:1DE8D7AC4103A2EABA11649C7FCF8ACA BaseClass: NativeClass:/Script/Engine.SkyLight Name:SkyLight_UAID_A85E45CFE40401D200_1470380759 Label:SkyLight SpatiallyLoaded:0 Bounds:IsValid=true, Min=(X=0.000 Y=0.000 Z=-223.000), Max=(X=0.000 Y=0.000 Z=-223.000) RuntimeGrid:None EditorOnly:0 RuntimeOnly:0 HLODRelevant:0 FolderPath:Lighting FolderGuid:B7E9BD5B45A652654791988DEF54CCEB
 |   |   |- Guid:2CE12F874AA39D020A0F4BA5739BD305 BaseClass: NativeClass:/Script/Engine.SkyAtmosphere Name:SkyAtmosphere_UAID_A85E45CFE40401D200_1470382762 Label:SkyAtmosphere SpatiallyLoaded:0 Bounds:IsValid=true, Min=(X=0.000 Y=0.000 Z=-163.000), Max=(X=0.000 Y=0.000 Z=-163.000) RuntimeGrid:None EditorOnly:0 RuntimeOnly:0 HLODRelevant:0 FolderPath:Lighting FolderGuid:B7E9BD5B45A652654791988DEF54CCEB
 |   |   |- Guid:2F10310C412A082F279678A6220CC500 BaseClass: NativeClass:/Script/Engine.CameraActor Name:CameraActor_UAID_047C16473BB5329901_1767509528 Label:CameraActor SpatiallyLoaded:1 Bounds:IsValid=true, Min=(X=0.000 Y=0.000 Z=108.000), Max=(X=0.000 Y=0.000 Z=108.000) RuntimeGrid:None EditorOnly:0 RuntimeOnly:0 HLODRelevant:0
 |   |   |- Guid:2FD39C914F0C5C7A3237738D75519668 BaseClass: NativeClass:/Script/Engine.KillZVolume Name:KillZVolume_UAID_047C16473BB5339901_1270285705 Label:KillZVolume SpatiallyLoaded:1 Bounds:IsValid=true, Min=(X=-62.853 Y=-50.000 Z=-4.375), Max=(X=-48.567 Y=50.000 Z=14.375) RuntimeGrid:None EditorOnly:0 RuntimeOnly:0 HLODRelevant:0
 |   |   |- Guid:515FD82D45A049E8E983CAB91796B59D BaseClass:/Game/BP_Pawn.BP_Pawn_C NativeClass:/Script/Engine.Pawn Name:BP_Pawn_C_UAID_047C16473BB5319901_1410457351 Label:BP_Pawn SpatiallyLoaded:1 Bounds:IsValid=true, Min=(X=-46.563 Y=-11.929 Z=2.632), Max=(X=-35.940 Y=11.929 Z=12.448) RuntimeGrid:None EditorOnly:0 RuntimeOnly:0 HLODRelevant:0
 |   |   |- Guid:5368FABB47D6D9580DAECA8B0417BF92 BaseClass: NativeClass:/Script/Engine.WorldDataLayers Name:WorldDataLayers Label:WorldDataLayers-1 SpatiallyLoaded:0 Bounds:IsValid=true, Min=(X=0.000 Y=0.000 Z=0.000), Max=(X=0.000 Y=0.000 Z=0.000) RuntimeGrid:None EditorOnly:0 RuntimeOnly:0 HLODRelevant:0
 |   |   |- Guid:61710168493AF35B00D348AE907D3BD4 BaseClass: NativeClass:/Script/Engine.StaticMeshActor Name:StaticMeshActor_UAID_047C16473BB52C9901_1968996474 Label:Wall3 SpatiallyLoaded:1 Bounds:IsValid=true, Min=(X=-52.775 Y=-53.139 Z=-1.578), Max=(X=53.171 Y=-50.014 Z=14.047) RuntimeGrid:None EditorOnly:0 RuntimeOnly:0 HLODRelevant:1
 |   |   |- Guid:86CDEDF845FCDFC1BC353D8D98535FD0 BaseClass: NativeClass:/Script/Engine.StaticMeshActor Name:StaticMeshActor_UAID_047C16473BB52C9901_1613287471 Label:Floor SpatiallyLoaded:1 Bounds:IsValid=true, Min=(X=-50.000 Y=-50.000 Z=-1.562), Max=(X=50.000 Y=50.000 Z=1.562) RuntimeGrid:None EditorOnly:0 RuntimeOnly:0 HLODRelevant:1
 |   |   |- Guid:9DA7F01B4BE8002359E3699C3C495C32 BaseClass: NativeClass:/Script/Engine.StaticMeshActor Name:StaticMeshActor_UAID_047C16473BB52D9901_1202064651 Label:Wall4 SpatiallyLoaded:1 Bounds:IsValid=true, Min=(X=-52.775 Y=49.987 Z=-1.578), Max=(X=53.171 Y=53.112 Z=14.047) RuntimeGrid:None EditorOnly:0 RuntimeOnly:0 HLODRelevant:1
 |   |   |- Guid:A625646949C7B2106C67A6A08302156A BaseClass: NativeClass:/Script/Engine.StaticMeshActor Name:StaticMeshActor_UAID_047C16473BB52C9901_1955049473 Label:Wall2 SpatiallyLoaded:1 Bounds:IsValid=true, Min=(X=-52.980 Y=-50.000 Z=-1.578), Max=(X=-49.855 Y=50.000 Z=14.047) RuntimeGrid:None EditorOnly:0 RuntimeOnly:0 HLODRelevant:1
 |   |   |- Guid:AAAC6B5742760A58C2206DB37E44683C BaseClass: NativeClass:/Script/Engine.DirectionalLight Name:DirectionalLight_UAID_A85E45CFE40401D200_1470382761 Label:DirectionalLight SpatiallyLoaded:0 Bounds:IsValid=true, Min=(X=-4398046511104.000 Y=-4398046511104.000 Z=-4398046511104.000), Max=(X=4398046511104.000 Y=4398046511104.000 Z=4398046511104.000) RuntimeGrid:None EditorOnly:0 RuntimeOnly:0 HLODRelevant:0 FolderPath:Lighting FolderGuid:B7E9BD5B45A652654791988DEF54CCEB
 |   |   |- Guid:B679D1384E35169EBABF779930E5F3C1 BaseClass:/Game/BP_Blocks.BP_Blocks_C NativeClass:/Script/Engine.Actor Name:BP_Blocks_C_UAID_047C16473BB52E9901_1301108823 Label:BP_Blocks SpatiallyLoaded:1 Bounds:IsValid=true, Min=(X=6.307 Y=-47.422 Z=3.179), Max=(X=49.362 Y=47.103 Z=12.781) RuntimeGrid:None EditorOnly:0 RuntimeOnly:0 HLODRelevant:0
 |   |   |- Guid:D3FB7383421AAEFD3DB6F8B1E415A9FE BaseClass: NativeClass:/Script/Engine.ExponentialHeightFog Name:ExponentialHeightFog_UAID_A85E45CFE40401D200_1470382763 Label:ExponentialHeightFog SpatiallyLoaded:0 Bounds:IsValid=true, Min=(X=-5600.000 Y=-50.000 Z=-6850.000), Max=(X=-5600.000 Y=-50.000 Z=-6850.000) RuntimeGrid:None EditorOnly:0 RuntimeOnly:0 HLODRelevant:0 FolderPath:Lighting FolderGuid:B7E9BD5B45A652654791988DEF54CCEB
 |   |   |- Guid:F217E5174136F4D536E4998CA99753CE BaseClass:/Game/BP_Bonus_Cube.BP_Bonus_Cube_C NativeClass:/Script/Engine.Actor Name:BP_Bonus_Cube_C_UAID_047C16473BB5D19901_1376764512 Label:BP_Bonus_Cube SpatiallyLoaded:1 Bounds:IsValid=true, Min=(X=-21.985 Y=-0.565 Z=6.988), Max=(X=-17.663 Y=3.575 Z=10.739) RuntimeGrid:None EditorOnly:0 RuntimeOnly:0 HLODRelevant:0
 |   |- [+] Clusters:
 |   |   |- [+] [  0]
 |   |   |   |- Guid:61710168493AF35B00D348AE907D3BD4 BaseClass: NativeClass:/Script/Engine.StaticMeshActor Name:StaticMeshActor_UAID_047C16473BB52C9901_1968996474 Label:Wall3 SpatiallyLoaded:1 Bounds:IsValid=true, Min=(X=-52.775 Y=-53.139 Z=-1.578), Max=(X=53.171 Y=-50.014 Z=14.047) RuntimeGrid:None EditorOnly:0 RuntimeOnly:0 HLODRelevant:1
 |   |   |- [+] [  1]
 |   |   |   |- Guid:2CE12F874AA39D020A0F4BA5739BD305 BaseClass: NativeClass:/Script/Engine.SkyAtmosphere Name:SkyAtmosphere_UAID_A85E45CFE40401D200_1470382762 Label:SkyAtmosphere SpatiallyLoaded:0 Bounds:IsValid=true, Min=(X=0.000 Y=0.000 Z=-163.000), Max=(X=0.000 Y=0.000 Z=-163.000) RuntimeGrid:None EditorOnly:0 RuntimeOnly:0 HLODRelevant:0 FolderPath:Lighting FolderGuid:B7E9BD5B45A652654791988DEF54CCEB
 |   |   |- [+] [  2]
 |   |   |   |- Guid:1DE8D7AC4103A2EABA11649C7FCF8ACA BaseClass: NativeClass:/Script/Engine.SkyLight Name:SkyLight_UAID_A85E45CFE40401D200_1470380759 Label:SkyLight SpatiallyLoaded:0 Bounds:IsValid=true, Min=(X=0.000 Y=0.000 Z=-223.000), Max=(X=0.000 Y=0.000 Z=-223.000) RuntimeGrid:None EditorOnly:0 RuntimeOnly:0 HLODRelevant:0 FolderPath:Lighting FolderGuid:B7E9BD5B45A652654791988DEF54CCEB
 |   |   |- [+] [  3]
 |   |   |   |- Guid:515FD82D45A049E8E983CAB91796B59D BaseClass:/Game/BP_Pawn.BP_Pawn_C NativeClass:/Script/Engine.Pawn Name:BP_Pawn_C_UAID_047C16473BB5319901_1410457351 Label:BP_Pawn SpatiallyLoaded:1 Bounds:IsValid=true, Min=(X=-46.563 Y=-11.929 Z=2.632), Max=(X=-35.940 Y=11.929 Z=12.448) RuntimeGrid:None EditorOnly:0 RuntimeOnly:0 HLODRelevant:0
 |   |   |- [+] [  4]
 |   |   |   |- Guid:1D3D26F04B6DC10BEFB5B69E5CF914C8 BaseClass: NativeClass:/Script/Engine.VolumetricCloud Name:VolumetricCloud_UAID_A85E45CFE40401D200_1470381760 Label:VolumetricCloud SpatiallyLoaded:0 Bounds:IsValid=true, Min=(X=0.000 Y=0.000 Z=-264.000), Max=(X=0.000 Y=0.000 Z=-264.000) RuntimeGrid:None EditorOnly:0 RuntimeOnly:0 HLODRelevant:0 FolderPath:Lighting FolderGuid:B7E9BD5B45A652654791988DEF54CCEB
 |   |   |- [+] [  5]
 |   |   |   |- Guid:1D6BD236467F5F6F0114E9B1916F78A4 BaseClass: NativeClass:/Script/Engine.StaticMeshActor Name:StaticMeshActor_UAID_047C16473BB52C9901_1702703472 Label:Wall SpatiallyLoaded:1 Bounds:IsValid=true, Min=(X=50.020 Y=-50.000 Z=-1.578), Max=(X=53.145 Y=50.000 Z=14.047) RuntimeGrid:None EditorOnly:0 RuntimeOnly:0 HLODRelevant:1
 |   |   |- [+] [  6]
 |   |   |   |- Guid:03920DF94EEFC9F86CC66185D32A3DA1 BaseClass: NativeClass:/Script/Engine.StaticMeshActor Name:StaticMeshActor_UAID_A4AE111137DC54FB00_1240666663 Label:SM_SkySphere SpatiallyLoaded:0 Bounds:IsValid=true, Min=(X=-1638400.000 Y=-1638400.000 Z=-1638598.000), Max=(X=1638400.000 Y=1638400.000 Z=1638202.000) RuntimeGrid:None EditorOnly:0 RuntimeOnly:0 HLODRelevant:0 FolderPath:Lighting FolderGuid:B7E9BD5B45A652654791988DEF54CCEB
 |   |   |- [+] [  7]
 |   |   |   |- Guid:86CDEDF845FCDFC1BC353D8D98535FD0 BaseClass: NativeClass:/Script/Engine.StaticMeshActor Name:StaticMeshActor_UAID_047C16473BB52C9901_1613287471 Label:Floor SpatiallyLoaded:1 Bounds:IsValid=true, Min=(X=-50.000 Y=-50.000 Z=-1.562), Max=(X=50.000 Y=50.000 Z=1.562) RuntimeGrid:None EditorOnly:0 RuntimeOnly:0 HLODRelevant:1
 |   |   |- [+] [  8]
 |   |   |   |- Guid:2F10310C412A082F279678A6220CC500 BaseClass: NativeClass:/Script/Engine.CameraActor Name:CameraActor_UAID_047C16473BB5329901_1767509528 Label:CameraActor SpatiallyLoaded:1 Bounds:IsValid=true, Min=(X=0.000 Y=0.000 Z=108.000), Max=(X=0.000 Y=0.000 Z=108.000) RuntimeGrid:None EditorOnly:0 RuntimeOnly:0 HLODRelevant:0
 |   |   |- [+] [  9]
 |   |   |   |- Guid:9DA7F01B4BE8002359E3699C3C495C32 BaseClass: NativeClass:/Script/Engine.StaticMeshActor Name:StaticMeshActor_UAID_047C16473BB52D9901_1202064651 Label:Wall4 SpatiallyLoaded:1 Bounds:IsValid=true, Min=(X=-52.775 Y=49.987 Z=-1.578), Max=(X=53.171 Y=53.112 Z=14.047) RuntimeGrid:None EditorOnly:0 RuntimeOnly:0 HLODRelevant:1
 |   |   |- [+] [ 10]
 |   |   |   |- Guid:B679D1384E35169EBABF779930E5F3C1 BaseClass:/Game/BP_Blocks.BP_Blocks_C NativeClass:/Script/Engine.Actor Name:BP_Blocks_C_UAID_047C16473BB52E9901_1301108823 Label:BP_Blocks SpatiallyLoaded:1 Bounds:IsValid=true, Min=(X=6.307 Y=-47.422 Z=3.179), Max=(X=49.362 Y=47.103 Z=12.781) RuntimeGrid:None EditorOnly:0 RuntimeOnly:0 HLODRelevant:0
 |   |   |- [+] [ 11]
 |   |   |   |- Guid:A625646949C7B2106C67A6A08302156A BaseClass: NativeClass:/Script/Engine.StaticMeshActor Name:StaticMeshActor_UAID_047C16473BB52C9901_1955049473 Label:Wall2 SpatiallyLoaded:1 Bounds:IsValid=true, Min=(X=-52.980 Y=-50.000 Z=-1.578), Max=(X=-49.855 Y=50.000 Z=14.047) RuntimeGrid:None EditorOnly:0 RuntimeOnly:0 HLODRelevant:1
 |   |   |- [+] [ 12]
 |   |   |   |- Guid:D3FB7383421AAEFD3DB6F8B1E415A9FE BaseClass: NativeClass:/Script/Engine.ExponentialHeightFog Name:ExponentialHeightFog_UAID_A85E45CFE40401D200_1470382763 Label:ExponentialHeightFog SpatiallyLoaded:0 Bounds:IsValid=true, Min=(X=-5600.000 Y=-50.000 Z=-6850.000), Max=(X=-5600.000 Y=-50.000 Z=-6850.000) RuntimeGrid:None EditorOnly:0 RuntimeOnly:0 HLODRelevant:0 FolderPath:Lighting FolderGuid:B7E9BD5B45A652654791988DEF54CCEB
 |   |   |- [+] [ 13]
 |   |   |   |- Guid:2FD39C914F0C5C7A3237738D75519668 BaseClass: NativeClass:/Script/Engine.KillZVolume Name:KillZVolume_UAID_047C16473BB5339901_1270285705 Label:KillZVolume SpatiallyLoaded:1 Bounds:IsValid=true, Min=(X=-62.853 Y=-50.000 Z=-4.375), Max=(X=-48.567 Y=50.000 Z=14.375) RuntimeGrid:None EditorOnly:0 RuntimeOnly:0 HLODRelevant:0
 |   |   |- [+] [ 14]
 |   |   |   |- Guid:5368FABB47D6D9580DAECA8B0417BF92 BaseClass: NativeClass:/Script/Engine.WorldDataLayers Name:WorldDataLayers Label:WorldDataLayers-1 SpatiallyLoaded:0 Bounds:IsValid=true, Min=(X=0.000 Y=0.000 Z=0.000), Max=(X=0.000 Y=0.000 Z=0.000) RuntimeGrid:None EditorOnly:0 RuntimeOnly:0 HLODRelevant:0
 |   |   |- [+] [ 15]
 |   |   |   |- Guid:AAAC6B5742760A58C2206DB37E44683C BaseClass: NativeClass:/Script/Engine.DirectionalLight Name:DirectionalLight_UAID_A85E45CFE40401D200_1470382761 Label:DirectionalLight SpatiallyLoaded:0 Bounds:IsValid=true, Min=(X=-4398046511104.000 Y=-4398046511104.000 Z=-4398046511104.000), Max=(X=4398046511104.000 Y=4398046511104.000 Z=4398046511104.000) RuntimeGrid:None EditorOnly:0 RuntimeOnly:0 HLODRelevant:0 FolderPath:Lighting FolderGuid:B7E9BD5B45A652654791988DEF54CCEB
 |   |   |- [+] [ 16]
 |   |   |   |- Guid:F217E5174136F4D536E4998CA99753CE BaseClass:/Game/BP_Bonus_Cube.BP_Bonus_Cube_C NativeClass:/Script/Engine.Actor Name:BP_Bonus_Cube_C_UAID_047C16473BB5D19901_1376764512 Label:BP_Bonus_Cube SpatiallyLoaded:1 Bounds:IsValid=true, Min=(X=-21.985 Y=-0.565 Z=6.988), Max=(X=-17.663 Y=3.575 Z=10.739) RuntimeGrid:None EditorOnly:0 RuntimeOnly:0 HLODRelevant:0
 |- ContainerInstances:
 |- [+] MainContainer:
 |   |-        ID: 0x0000000000000000
 |   |-    Bounds: IsValid=true, Min=(X=-62.853 Y=-53.139 Z=-4.375), Max=(X=53.171 Y=53.112 Z=108.000)
 |   |- Transform: 0.000000,0.000000,0.000000|0.000000,0.000000,-0.000000|1.000000,1.000000,1.000000
 |   |- Container: /Game/TestMap
----------------------------------------------------------------------------------------------------------------
TestMap - Persistent Level
----------------------------------------------------------------------------------------------------------------
Always loaded Actor Count: 25 

----------------------------------------------------------------------------------------------------------------
TestMap - Runtime Spatial Hash - Streaming Grid - MainGrid
----------------------------------------------------------------------------------------------------------------
            Origin: X=0.000 Y=0.000 Z=0.000
         Cell Size: 25600
      World Bounds: IsValid=true, Min=(X=-62.853 Y=-53.139 Z=-4.375), Max=(X=53.171 Y=53.112 Z=108.000)
     Loading Range: 76800.00
Block Slow Loading: No
 ClientOnlyVisible: No

[+] Grid Levels: 2
 |- Level  0: Cell Count    1 | Cell Size   25600 | Actor Count    1 (100.0%)
 |- Level  1: Cell Count    0 | Cell Size   51200 | Actor Count    0 (0.0%)

[+] Content of Grid Level 0
 |- [+] Content of Cell MainGrid_L0_X0_Y0
 |   |- Actor Count: 1
 |   |- MinMaxZ: X=108.000 Y=108.000
 |   |- Actor Path: /Game/TestMap.TestMap:PersistentLevel.CameraActor_UAID_047C16473BB5329901_1767509528
 |   |- Actor Package: /Game/__ExternalActors__/TestMap/9/XW/3T0HLHWODAK4OUB4JOPYOW
[+] Content of Grid Level 1

